{
  "cod":"200",
  "message":0,
  "cnt":40,
  "list":[
     {
        "dt":1587556800,
        "main":{
           "temp":19.68,
           "feels_like":17.92,
           "temp_min":18.12,
           "temp_max":19.68,
           "pressure":1014,
           "sea_level":1014,
           "grnd_level":938,
           "humidity":39,
           "temp_kf":1.56
        },
        "weather":[
           {
              "id":802,
              "main":"Clouds",
              "description":"scattered clouds",
              "icon":"03d"
           }
        ],
        "clouds":{
           "all":47
        },
        "wind":{
           "speed":1,
           "deg":206
        },
        "sys":{
           "pod":"d"
        },
        "dt_txt":"2020-04-22 12:00:00"
     },
     {
        "dt":1587567600,
        "main":{
           "temp":19.89,
           "feels_like":17.15,
           "temp_min":19.23,
           "temp_max":19.89,
           "pressure":1014,
           "sea_level":1014,
           "grnd_level":937,
           "humidity":34,
           "temp_kf":0.66
        },
        "weather":[
           {
              "id":803,
              "main":"Clouds",
              "description":"broken clouds",
              "icon":"04d"
           }
        ],
        "clouds":{
           "all":77
        },
        "wind":{
           "speed":1.91,
           "deg":212
        },
        "sys":{
           "pod":"d"
        },
        "dt_txt":"2020-04-22 15:00:00"
     },
     {
        "dt":1587578400,
        "main":{
           "temp":18.23,
           "feels_like":15.31,
           "temp_min":18.04,
           "temp_max":18.23,
           "pressure":1014,
           "sea_level":1014,
           "grnd_level":938,
           "humidity":39,
           "temp_kf":0.19
        },
        "weather":[
           {
              "id":803,
              "main":"Clouds",
              "description":"broken clouds",
              "icon":"04d"
           }
        ],
        "clouds":{
           "all":81
        },
        "wind":{
           "speed":2.3,
           "deg":243
        },
        "sys":{
           "pod":"d"
        },
        "dt_txt":"2020-04-22 18:00:00"
     },
     {
        "dt":1587589200,
        "main":{
           "temp":15.2,
           "feels_like":13.43,
           "temp_min":15.18,
           "temp_max":15.2,
           "pressure":1017,
           "sea_level":1017,
           "grnd_level":939,
           "humidity":48,
           "temp_kf":0.02
        },
        "weather":[
           {
              "id":803,
              "main":"Clouds",
              "description":"broken clouds",
              "icon":"04n"
           }
        ],
        "clouds":{
           "all":76
        },
        "wind":{
           "speed":0.72,
           "deg":330
        },
        "sys":{
           "pod":"n"
        },
        "dt_txt":"2020-04-22 21:00:00"
     },
     {
        "dt":1587600000,
        "main":{
           "temp":12.64,
           "feels_like":10.12,
           "temp_min":12.64,
           "temp_max":12.64,
           "pressure":1018,
           "sea_level":1018,
           "grnd_level":940,
           "humidity":56,
           "temp_kf":0
        },
        "weather":[
           {
              "id":803,
              "main":"Clouds",
              "description":"broken clouds",
              "icon":"04n"
           }
        ],
        "clouds":{
           "all":60
        },
        "wind":{
           "speed":1.74,
           "deg":43
        },
        "sys":{
           "pod":"n"
        },
        "dt_txt":"2020-04-23 00:00:00"
     },
     {
        "dt":1587610800,
        "main":{
           "temp":12.39,
           "feels_like":9.8,
           "temp_min":12.39,
           "temp_max":12.39,
           "pressure":1017,
           "sea_level":1017,
           "grnd_level":938,
           "humidity":57,
           "temp_kf":0
        },
        "weather":[
           {
              "id":802,
              "main":"Clouds",
              "description":"scattered clouds",
              "icon":"03n"
           }
        ],
        "clouds":{
           "all":40
        },
        "wind":{
           "speed":1.85,
           "deg":73
        },
        "sys":{
           "pod":"n"
        },
        "dt_txt":"2020-04-23 03:00:00"
     },
     {
        "dt":1587621600,
        "main":{
           "temp":11.29,
           "feels_like":9.05,
           "temp_min":11.29,
           "temp_max":11.29,
           "pressure":1018,
           "sea_level":1018,
           "grnd_level":939,
           "humidity":67,
           "temp_kf":0
        },
        "weather":[
           {
              "id":802,
              "main":"Clouds",
              "description":"scattered clouds",
              "icon":"03d"
           }
        ],
        "clouds":{
           "all":38
        },
        "wind":{
           "speed":1.71,
           "deg":109
        },
        "sys":{
           "pod":"d"
        },
        "dt_txt":"2020-04-23 06:00:00"
     },
     {
        "dt":1587632400,
        "main":{
           "temp":15.64,
           "feels_like":13.1,
           "temp_min":15.64,
           "temp_max":15.64,
           "pressure":1017,
           "sea_level":1017,
           "grnd_level":940,
           "humidity":54,
           "temp_kf":0
        },
        "weather":[
           {
              "id":801,
              "main":"Clouds",
              "description":"few clouds",
              "icon":"02d"
           }
        ],
        "clouds":{
           "all":17
        },
        "wind":{
           "speed":2.43,
           "deg":130
        },
        "sys":{
           "pod":"d"
        },
        "dt_txt":"2020-04-23 09:00:00"
     },
     {
        "dt":1587643200,
        "main":{
           "temp":18.92,
           "feels_like":15.85,
           "temp_min":18.92,
           "temp_max":18.92,
           "pressure":1016,
           "sea_level":1016,
           "grnd_level":940,
           "humidity":41,
           "temp_kf":0
        },
        "weather":[
           {
              "id":500,
              "main":"Rain",
              "description":"light rain",
              "icon":"10d"
           }
        ],
        "clouds":{
           "all":31
        },
        "wind":{
           "speed":2.88,
           "deg":165
        },
        "rain":{
           "3h":0.5
        },
        "sys":{
           "pod":"d"
        },
        "dt_txt":"2020-04-23 12:00:00"
     },
     {
        "dt":1587654000,
        "main":{
           "temp":20.49,
           "feels_like":17.84,
           "temp_min":20.49,
           "temp_max":20.49,
           "pressure":1014,
           "sea_level":1014,
           "grnd_level":938,
           "humidity":35,
           "temp_kf":0
        },
        "weather":[
           {
              "id":500,
              "main":"Rain",
              "description":"light rain",
              "icon":"10d"
           }
        ],
        "clouds":{
           "all":72
        },
        "wind":{
           "speed":2.04,
           "deg":189
        },
        "rain":{
           "3h":0.13
        },
        "sys":{
           "pod":"d"
        },
        "dt_txt":"2020-04-23 15:00:00"
     },
     {
        "dt":1587664800,
        "main":{
           "temp":19.78,
           "feels_like":16.95,
           "temp_min":19.78,
           "temp_max":19.78,
           "pressure":1014,
           "sea_level":1014,
           "grnd_level":938,
           "humidity":40,
           "temp_kf":0
        },
        "weather":[
           {
              "id":803,
              "main":"Clouds",
              "description":"broken clouds",
              "icon":"04d"
           }
        ],
        "clouds":{
           "all":60
        },
        "wind":{
           "speed":2.66,
           "deg":195
        },
        "sys":{
           "pod":"d"
        },
        "dt_txt":"2020-04-23 18:00:00"
     },
     {
        "dt":1587675600,
        "main":{
           "temp":16.02,
           "feels_like":13.9,
           "temp_min":16.02,
           "temp_max":16.02,
           "pressure":1016,
           "sea_level":1016,
           "grnd_level":938,
           "humidity":50,
           "temp_kf":0
        },
        "weather":[
           {
              "id":804,
              "main":"Clouds",
              "description":"overcast clouds",
              "icon":"04n"
           }
        ],
        "clouds":{
           "all":87
        },
        "wind":{
           "speed":1.6,
           "deg":145
        },
        "sys":{
           "pod":"n"
        },
        "dt_txt":"2020-04-23 21:00:00"
     },
     {
        "dt":1587686400,
        "main":{
           "temp":14.21,
           "feels_like":11.44,
           "temp_min":14.21,
           "temp_max":14.21,
           "pressure":1016,
           "sea_level":1016,
           "grnd_level":938,
           "humidity":59,
           "temp_kf":0
        },
        "weather":[
           {
              "id":500,
              "main":"Rain",
              "description":"light rain",
              "icon":"10n"
           }
        ],
        "clouds":{
           "all":93
        },
        "wind":{
           "speed":2.74,
           "deg":138
        },
        "rain":{
           "3h":0.38
        },
        "sys":{
           "pod":"n"
        },
        "dt_txt":"2020-04-24 00:00:00"
     },
     {
        "dt":1587697200,
        "main":{
           "temp":13.05,
           "feels_like":10.44,
           "temp_min":13.05,
           "temp_max":13.05,
           "pressure":1015,
           "sea_level":1015,
           "grnd_level":937,
           "humidity":64,
           "temp_kf":0
        },
        "weather":[
           {
              "id":500,
              "main":"Rain",
              "description":"light rain",
              "icon":"10n"
           }
        ],
        "clouds":{
           "all":95
        },
        "wind":{
           "speed":2.54,
           "deg":76
        },
        "rain":{
           "3h":0.39
        },
        "sys":{
           "pod":"n"
        },
        "dt_txt":"2020-04-24 03:00:00"
     },
     {
        "dt":1587708000,
        "main":{
           "temp":12.06,
           "feels_like":9.19,
           "temp_min":12.06,
           "temp_max":12.06,
           "pressure":1014,
           "sea_level":1014,
           "grnd_level":936,
           "humidity":66,
           "temp_kf":0
        },
        "weather":[
           {
              "id":804,
              "main":"Clouds",
              "description":"overcast clouds",
              "icon":"04d"
           }
        ],
        "clouds":{
           "all":95
        },
        "wind":{
           "speed":2.76,
           "deg":62
        },
        "sys":{
           "pod":"d"
        },
        "dt_txt":"2020-04-24 06:00:00"
     },
     {
        "dt":1587718800,
        "main":{
           "temp":15.48,
           "feels_like":12.67,
           "temp_min":15.48,
           "temp_max":15.48,
           "pressure":1014,
           "sea_level":1014,
           "grnd_level":937,
           "humidity":50,
           "temp_kf":0
        },
        "weather":[
           {
              "id":804,
              "main":"Clouds",
              "description":"overcast clouds",
              "icon":"04d"
           }
        ],
        "clouds":{
           "all":98
        },
        "wind":{
           "speed":2.44,
           "deg":102
        },
        "sys":{
           "pod":"d"
        },
        "dt_txt":"2020-04-24 09:00:00"
     },
     {
        "dt":1587729600,
        "main":{
           "temp":19.9,
           "feels_like":17.38,
           "temp_min":19.9,
           "temp_max":19.9,
           "pressure":1012,
           "sea_level":1012,
           "grnd_level":936,
           "humidity":39,
           "temp_kf":0
        },
        "weather":[
           {
              "id":500,
              "main":"Rain",
              "description":"light rain",
              "icon":"10d"
           }
        ],
        "clouds":{
           "all":99
        },
        "wind":{
           "speed":2.15,
           "deg":141
        },
        "rain":{
           "3h":0.14
        },
        "sys":{
           "pod":"d"
        },
        "dt_txt":"2020-04-24 12:00:00"
     },
     {
        "dt":1587740400,
        "main":{
           "temp":21.43,
           "feels_like":17.73,
           "temp_min":21.43,
           "temp_max":21.43,
           "pressure":1010,
           "sea_level":1010,
           "grnd_level":934,
           "humidity":34,
           "temp_kf":0
        },
        "weather":[
           {
              "id":500,
              "main":"Rain",
              "description":"light rain",
              "icon":"10d"
           }
        ],
        "clouds":{
           "all":100
        },
        "wind":{
           "speed":3.66,
           "deg":172
        },
        "rain":{
           "3h":0.44
        },
        "sys":{
           "pod":"d"
        },
        "dt_txt":"2020-04-24 15:00:00"
     },
     {
        "dt":1587751200,
        "main":{
           "temp":20.09,
           "feels_like":17.16,
           "temp_min":20.09,
           "temp_max":20.09,
           "pressure":1009,
           "sea_level":1009,
           "grnd_level":933,
           "humidity":39,
           "temp_kf":0
        },
        "weather":[
           {
              "id":500,
              "main":"Rain",
              "description":"light rain",
              "icon":"10d"
           }
        ],
        "clouds":{
           "all":100
        },
        "wind":{
           "speed":2.78,
           "deg":164
        },
        "rain":{
           "3h":0.11
        },
        "sys":{
           "pod":"d"
        },
        "dt_txt":"2020-04-24 18:00:00"
     },
     {
        "dt":1587762000,
        "main":{
           "temp":16.15,
           "feels_like":13.23,
           "temp_min":16.15,
           "temp_max":16.15,
           "pressure":1012,
           "sea_level":1012,
           "grnd_level":935,
           "humidity":47,
           "temp_kf":0
        },
        "weather":[
           {
              "id":804,
              "main":"Clouds",
              "description":"overcast clouds",
              "icon":"04n"
           }
        ],
        "clouds":{
           "all":98
        },
        "wind":{
           "speed":2.51,
           "deg":127
        },
        "sys":{
           "pod":"n"
        },
        "dt_txt":"2020-04-24 21:00:00"
     },
     {
        "dt":1587772800,
        "main":{
           "temp":13.9,
           "feels_like":11.45,
           "temp_min":13.9,
           "temp_max":13.9,
           "pressure":1011,
           "sea_level":1011,
           "grnd_level":934,
           "humidity":54,
           "temp_kf":0
        },
        "weather":[
           {
              "id":500,
              "main":"Rain",
              "description":"light rain",
              "icon":"10n"
           }
        ],
        "clouds":{
           "all":81
        },
        "wind":{
           "speed":1.82,
           "deg":74
        },
        "rain":{
           "3h":0.16
        },
        "sys":{
           "pod":"n"
        },
        "dt_txt":"2020-04-25 00:00:00"
     },
     {
        "dt":1587783600,
        "main":{
           "temp":12.32,
           "feels_like":9.52,
           "temp_min":12.32,
           "temp_max":12.32,
           "pressure":1010,
           "sea_level":1010,
           "grnd_level":932,
           "humidity":58,
           "temp_kf":0
        },
        "weather":[
           {
              "id":800,
              "main":"Clear",
              "description":"clear sky",
              "icon":"01n"
           }
        ],
        "clouds":{
           "all":5
        },
        "wind":{
           "speed":2.19,
           "deg":65
        },
        "sys":{
           "pod":"n"
        },
        "dt_txt":"2020-04-25 03:00:00"
     },
     {
        "dt":1587794400,
        "main":{
           "temp":11.86,
           "feels_like":8.8,
           "temp_min":11.86,
           "temp_max":11.86,
           "pressure":1010,
           "sea_level":1010,
           "grnd_level":932,
           "humidity":60,
           "temp_kf":0
        },
        "weather":[
           {
              "id":801,
              "main":"Clouds",
              "description":"few clouds",
              "icon":"02d"
           }
        ],
        "clouds":{
           "all":13
        },
        "wind":{
           "speed":2.58,
           "deg":61
        },
        "sys":{
           "pod":"d"
        },
        "dt_txt":"2020-04-25 06:00:00"
     },
     {
        "dt":1587805200,
        "main":{
           "temp":16.82,
           "feels_like":14.06,
           "temp_min":16.82,
           "temp_max":16.82,
           "pressure":1009,
           "sea_level":1009,
           "grnd_level":932,
           "humidity":44,
           "temp_kf":0
        },
        "weather":[
           {
              "id":801,
              "main":"Clouds",
              "description":"few clouds",
              "icon":"02d"
           }
        ],
        "clouds":{
           "all":20
        },
        "wind":{
           "speed":2.19,
           "deg":83
        },
        "sys":{
           "pod":"d"
        },
        "dt_txt":"2020-04-25 09:00:00"
     },
     {
        "dt":1587816000,
        "main":{
           "temp":21.41,
           "feels_like":18.3,
           "temp_min":21.41,
           "temp_max":21.41,
           "pressure":1007,
           "sea_level":1007,
           "grnd_level":932,
           "humidity":33,
           "temp_kf":0
        },
        "weather":[
           {
              "id":801,
              "main":"Clouds",
              "description":"few clouds",
              "icon":"02d"
           }
        ],
        "clouds":{
           "all":24
        },
        "wind":{
           "speed":2.69,
           "deg":109
        },
        "sys":{
           "pod":"d"
        },
        "dt_txt":"2020-04-25 12:00:00"
     },
     {
        "dt":1587826800,
        "main":{
           "temp":23.4,
           "feels_like":19.07,
           "temp_min":23.4,
           "temp_max":23.4,
           "pressure":1005,
           "sea_level":1005,
           "grnd_level":930,
           "humidity":27,
           "temp_kf":0
        },
        "weather":[
           {
              "id":801,
              "main":"Clouds",
              "description":"few clouds",
              "icon":"02d"
           }
        ],
        "clouds":{
           "all":19
        },
        "wind":{
           "speed":4.13,
           "deg":165
        },
        "sys":{
           "pod":"d"
        },
        "dt_txt":"2020-04-25 15:00:00"
     },
     {
        "dt":1587837600,
        "main":{
           "temp":19.88,
           "feels_like":14.79,
           "temp_min":19.88,
           "temp_max":19.88,
           "pressure":1005,
           "sea_level":1005,
           "grnd_level":929,
           "humidity":43,
           "temp_kf":0
        },
        "weather":[
           {
              "id":500,
              "main":"Rain",
              "description":"light rain",
              "icon":"10d"
           }
        ],
        "clouds":{
           "all":28
        },
        "wind":{
           "speed":6.25,
           "deg":192
        },
        "rain":{
           "3h":0.32
        },
        "sys":{
           "pod":"d"
        },
        "dt_txt":"2020-04-25 18:00:00"
     },
     {
        "dt":1587848400,
        "main":{
           "temp":15.91,
           "feels_like":13.14,
           "temp_min":15.91,
           "temp_max":15.91,
           "pressure":1008,
           "sea_level":1008,
           "grnd_level":931,
           "humidity":58,
           "temp_kf":0
        },
        "weather":[
           {
              "id":500,
              "main":"Rain",
              "description":"light rain",
              "icon":"10n"
           }
        ],
        "clouds":{
           "all":82
        },
        "wind":{
           "speed":3.18,
           "deg":200
        },
        "rain":{
           "3h":1.94
        },
        "sys":{
           "pod":"n"
        },
        "dt_txt":"2020-04-25 21:00:00"
     },
     {
        "dt":1587859200,
        "main":{
           "temp":14.27,
           "feels_like":12.65,
           "temp_min":14.27,
           "temp_max":14.27,
           "pressure":1008,
           "sea_level":1008,
           "grnd_level":931,
           "humidity":62,
           "temp_kf":0
        },
        "weather":[
           {
              "id":500,
              "main":"Rain",
              "description":"light rain",
              "icon":"10n"
           }
        ],
        "clouds":{
           "all":91
        },
        "wind":{
           "speed":1.34,
           "deg":158
        },
        "rain":{
           "3h":1.14
        },
        "sys":{
           "pod":"n"
        },
        "dt_txt":"2020-04-26 00:00:00"
     },
     {
        "dt":1587870000,
        "main":{
           "temp":12.86,
           "feels_like":11.29,
           "temp_min":12.86,
           "temp_max":12.86,
           "pressure":1007,
           "sea_level":1007,
           "grnd_level":930,
           "humidity":66,
           "temp_kf":0
        },
        "weather":[
           {
              "id":500,
              "main":"Rain",
              "description":"light rain",
              "icon":"10n"
           }
        ],
        "clouds":{
           "all":65
        },
        "wind":{
           "speed":1.14,
           "deg":87
        },
        "rain":{
           "3h":0.25
        },
        "sys":{
           "pod":"n"
        },
        "dt_txt":"2020-04-26 03:00:00"
     },
     {
        "dt":1587880800,
        "main":{
           "temp":12.53,
           "feels_like":10.75,
           "temp_min":12.53,
           "temp_max":12.53,
           "pressure":1007,
           "sea_level":1007,
           "grnd_level":930,
           "humidity":70,
           "temp_kf":0
        },
        "weather":[
           {
              "id":500,
              "main":"Rain",
              "description":"light rain",
              "icon":"10d"
           }
        ],
        "clouds":{
           "all":69
        },
        "wind":{
           "speed":1.61,
           "deg":104
        },
        "rain":{
           "3h":0.21
        },
        "sys":{
           "pod":"d"
        },
        "dt_txt":"2020-04-26 06:00:00"
     },
     {
        "dt":1587891600,
        "main":{
           "temp":14.49,
           "feels_like":12.99,
           "temp_min":14.49,
           "temp_max":14.49,
           "pressure":1008,
           "sea_level":1008,
           "grnd_level":931,
           "humidity":65,
           "temp_kf":0
        },
        "weather":[
           {
              "id":500,
              "main":"Rain",
              "description":"light rain",
              "icon":"10d"
           }
        ],
        "clouds":{
           "all":100
        },
        "wind":{
           "speed":1.47,
           "deg":182
        },
        "rain":{
           "3h":0.52
        },
        "sys":{
           "pod":"d"
        },
        "dt_txt":"2020-04-26 09:00:00"
     },
     {
        "dt":1587902400,
        "main":{
           "temp":13.97,
           "feels_like":9.58,
           "temp_min":13.97,
           "temp_max":13.97,
           "pressure":1008,
           "sea_level":1008,
           "grnd_level":931,
           "humidity":66,
           "temp_kf":0
        },
        "weather":[
           {
              "id":500,
              "main":"Rain",
              "description":"light rain",
              "icon":"10d"
           }
        ],
        "clouds":{
           "all":100
        },
        "wind":{
           "speed":5.51,
           "deg":220
        },
        "rain":{
           "3h":2.35
        },
        "sys":{
           "pod":"d"
        },
        "dt_txt":"2020-04-26 12:00:00"
     },
     {
        "dt":1587913200,
        "main":{
           "temp":16.81,
           "feels_like":10.6,
           "temp_min":16.81,
           "temp_max":16.81,
           "pressure":1007,
           "sea_level":1007,
           "grnd_level":931,
           "humidity":46,
           "temp_kf":0
        },
        "weather":[
           {
              "id":500,
              "main":"Rain",
              "description":"light rain",
              "icon":"10d"
           }
        ],
        "clouds":{
           "all":96
        },
        "wind":{
           "speed":7.3,
           "deg":228
        },
        "rain":{
           "3h":0.21
        },
        "sys":{
           "pod":"d"
        },
        "dt_txt":"2020-04-26 15:00:00"
     },
     {
        "dt":1587924000,
        "main":{
           "temp":15.43,
           "feels_like":9.74,
           "temp_min":15.43,
           "temp_max":15.43,
           "pressure":1007,
           "sea_level":1007,
           "grnd_level":930,
           "humidity":48,
           "temp_kf":0
        },
        "weather":[
           {
              "id":804,
              "main":"Clouds",
              "description":"overcast clouds",
              "icon":"04d"
           }
        ],
        "clouds":{
           "all":98
        },
        "wind":{
           "speed":6.37,
           "deg":229
        },
        "sys":{
           "pod":"d"
        },
        "dt_txt":"2020-04-26 18:00:00"
     },
     {
        "dt":1587934800,
        "main":{
           "temp":12.67,
           "feels_like":8.3,
           "temp_min":12.67,
           "temp_max":12.67,
           "pressure":1010,
           "sea_level":1010,
           "grnd_level":932,
           "humidity":53,
           "temp_kf":0
        },
        "weather":[
           {
              "id":804,
              "main":"Clouds",
              "description":"overcast clouds",
              "icon":"04n"
           }
        ],
        "clouds":{
           "all":97
        },
        "wind":{
           "speed":4.18,
           "deg":235
        },
        "sys":{
           "pod":"n"
        },
        "dt_txt":"2020-04-26 21:00:00"
     },
     {
        "dt":1587945600,
        "main":{
           "temp":11.25,
           "feels_like":7.59,
           "temp_min":11.25,
           "temp_max":11.25,
           "pressure":1011,
           "sea_level":1011,
           "grnd_level":933,
           "humidity":61,
           "temp_kf":0
        },
        "weather":[
           {
              "id":803,
              "main":"Clouds",
              "description":"broken clouds",
              "icon":"04n"
           }
        ],
        "clouds":{
           "all":78
        },
        "wind":{
           "speed":3.34,
           "deg":228
        },
        "sys":{
           "pod":"n"
        },
        "dt_txt":"2020-04-27 00:00:00"
     },
     {
        "dt":1587956400,
        "main":{
           "temp":10.36,
           "feels_like":6.65,
           "temp_min":10.36,
           "temp_max":10.36,
           "pressure":1010,
           "sea_level":1010,
           "grnd_level":932,
           "humidity":65,
           "temp_kf":0
        },
        "weather":[
           {
              "id":803,
              "main":"Clouds",
              "description":"broken clouds",
              "icon":"04n"
           }
        ],
        "clouds":{
           "all":62
        },
        "wind":{
           "speed":3.44,
           "deg":225
        },
        "sys":{
           "pod":"n"
        },
        "dt_txt":"2020-04-27 03:00:00"
     },
     {
        "dt":1587967200,
        "main":{
           "temp":9.51,
           "feels_like":5.8,
           "temp_min":9.51,
           "temp_max":9.51,
           "pressure":1011,
           "sea_level":1011,
           "grnd_level":932,
           "humidity":70,
           "temp_kf":0
        },
        "weather":[
           {
              "id":803,
              "main":"Clouds",
              "description":"broken clouds",
              "icon":"04d"
           }
        ],
        "clouds":{
           "all":81
        },
        "wind":{
           "speed":3.5,
           "deg":210
        },
        "sys":{
           "pod":"d"
        },
        "dt_txt":"2020-04-27 06:00:00"
     },
     {
        "dt":1587978000,
        "main":{
           "temp":12.97,
           "feels_like":7.93,
           "temp_min":12.97,
           "temp_max":12.97,
           "pressure":1010,
           "sea_level":1010,
           "grnd_level":933,
           "humidity":54,
           "temp_kf":0
        },
        "weather":[
           {
              "id":803,
              "main":"Clouds",
              "description":"broken clouds",
              "icon":"04d"
           }
        ],
        "clouds":{
           "all":77
        },
        "wind":{
           "speed":5.29,
           "deg":222
        },
        "sys":{
           "pod":"d"
        },
        "dt_txt":"2020-04-27 09:00:00"
     }
  ],
  "city":{
     "id":6544494,
     "name":"Madrid City Center",
     "coord":{
        "lat":40.4183,
        "lon":-3.7028
     },
     "country":"ES",
     "timezone":7200,
     "sunrise":1587533130,
     "sunset":1587582037
  }
}
